{
    "value": {
        "analysisFile": "/home/rusticd/Documents/Programming/Scala/scalamilltemplate/out/mill-build/compile.dest/zinc",
        "classes": "ref:v0:f95296a9:/home/rusticd/Documents/Programming/Scala/scalamilltemplate/out/mill-build/compile.dest/classes"
    },
    "valueHash": 601458260,
    "inputsHash": 1615595893
}