{
    "value": [
        "ref:v0:1e4c91e1:/home/rusticd/Documents/Programming/Scala/scalamilltemplate/out/mill-build/generateScriptSources.dest"
    ],
    "valueHash": -466176864,
    "inputsHash": 1367099442
}