{
    "value": [
        "ref:v0:c984eca8:/home/rusticd/Documents/Programming/Scala/scalamilltemplate/mill-build/compile-resources",
        "ref:v0:c984eca8:/home/rusticd/Documents/Programming/Scala/scalamilltemplate/mill-build/resources",
        "ref:v0:f95296a9:/home/rusticd/Documents/Programming/Scala/scalamilltemplate/out/mill-build/compile.dest/classes"
    ],
    "valueHash": -1445158961,
    "inputsHash": 1076522639
}