{
    "value": [
        {
            "dep": {
                "module": {
                    "organization": {
                        "value": "org.scala-lang"
                    },
                    "name": {
                        "value": "scala-library"
                    },
                    "attributes": {
                        
                    }
                },
                "version": "2.13.10",
                "configuration": {
                    "value": "default(compile)"
                },
                "minimizedExclusions": {
                    "data": "coursier.core.MinimizedExclusions.ExcludeNone"
                },
                "publication": {
                    "name": "",
                    "type": {
                        "value": ""
                    },
                    "ext": {
                        "value": ""
                    },
                    "classifier": {
                        "value": ""
                    }
                },
                "optional": false,
                "transitive": true
            },
            "cross": {
                "$type": "mill.scalalib.CrossVersion.Constant",
                "value": "",
                "platformed": false
            },
            "force": true
        }
    ],
    "valueHash": 1232866668,
    "inputsHash": -950749256
}