{
    "value": [
        "qref:v1:5037bdfe:/home/rusticd/.cache/coursier/v1/https/repo1.maven.org/maven2/com/lihaoyi/mill-contrib-bloop_2.13/0.11.1/mill-contrib-bloop_2.13-0.11.1.jar",
        "qref:v1:647bb4c6:/home/rusticd/.cache/coursier/v1/https/repo1.maven.org/maven2/com/lihaoyi/mill-moduledefs_2.13/0.10.9/mill-moduledefs_2.13-0.10.9.jar",
        "qref:v1:a94bfc28:/home/rusticd/.cache/coursier/v1/https/repo1.maven.org/maven2/org/scala-lang/scala-library/2.13.10/scala-library-2.13.10.jar",
        "qref:v1:8dde530d:/home/rusticd/.cache/coursier/v1/https/repo1.maven.org/maven2/ch/epfl/scala/bloop-config_2.13/1.5.5/bloop-config_2.13-1.5.5.jar",
        "qref:v1:e761310d:/home/rusticd/.cache/coursier/v1/https/repo1.maven.org/maven2/org/scala-lang/scala-compiler/2.13.10/scala-compiler-2.13.10.jar",
        "qref:v1:589290b0:/home/rusticd/.cache/coursier/v1/https/repo1.maven.org/maven2/com/lihaoyi/sourcecode_2.13/0.3.0/sourcecode_2.13-0.3.0.jar",
        "qref:v1:4baeb789:/home/rusticd/.cache/coursier/v1/https/repo1.maven.org/maven2/org/scala-lang/scala-reflect/2.13.10/scala-reflect-2.13.10.jar",
        "qref:v1:c3fede0e:/home/rusticd/.cache/coursier/v1/https/repo1.maven.org/maven2/io/github/java-diff-utils/java-diff-utils/4.12/java-diff-utils-4.12.jar",
        "qref:v1:ad06b5c9:/home/rusticd/.cache/coursier/v1/https/repo1.maven.org/maven2/org/jline/jline/3.21.0/jline-3.21.0.jar",
        "qref:v1:c30391bd:/home/rusticd/.cache/coursier/v1/https/repo1.maven.org/maven2/net/java/dev/jna/jna/5.9.0/jna-5.9.0.jar"
    ],
    "valueHash": -262290040,
    "inputsHash": 1759231636
}